{
  "schedules": [
    {
      "alert": "January will be DNS month.  All presentations will be related to DNS.",
      "date": "19 Jan 2017",
      "sponsor": {
        "sponsor": "Akamai"//,
        //"image": "akamai.png"
      },
      "intro": {
        "title": "SecDSM 101",
        "time": "6:00 PM",
        "description": "A brief introduction to the group along with any announcements and general communication."
      },
      "tooltalks": [
      ],
      "features": [
        {
          "title": "SecDSM News",
          "time": "6:05 PM",
          "description": "Quick Review of the Month's InfoSec news",
          "speaker": {
            "name": "James Beal",
            "bio": ""
          }
        },
        {
          "title": "Running BIND on a Raspberry Pi 3 for security",
          "time": "6:30 PM",
           "description": "After watching <a href=\"http://wiki.securityweekly.com/wiki/index.php/Episode472#Tech_Segment:_Blocking_Ads_and_Malware_Using_Bind_DNS\">Paul's Security Weekly Episode #472</a> I liked the idea of running a BIND DNS server to block ads and malware.  This talk will cover my implementation of this concept.  The concept is useful in many different environments, from home to the office.",
          "speaker": {
            "name": "Brandon Murphy"
          }
        },
        {
         "title": "DNS Tunneling with dnscat2",
         "time": "7:00 PM",
         "description": "Welcome to dnscat2, a DNS tunnel that WON'T make you sick and kill you!  This tool is designed to create an encrypted command-and-control (C&C) channel over the DNS protocol, which is an effective tunnel out of almost every network.",
         "speaker": {
           "name": "Ben Schmitt"
         }
       },
        {
          "title": "WeevBot - Browser Based DNS Exfiltration",
          "time": "7:15 PM",
          "description": "Need to enumerate an internet facing resources that increments by ID but don't want the traffic to go directly from the source to you? You need a malwareless browser-based botnet.  Try WeevBot.  WeevBot is a browser based DNS exfiltration technique that will grab the resource and send it to you via DNS - all using the browser. We'll look at both the client side and server side code and setup and discuss some limitations of this technique as well as some possible practical applications.",
          "speaker": {
            "name": "Tom Pohl and Nick Starke"
          }
        },
        {
          "title": "Finding a needle in a haystack: Utilizing DNS to detect threats",
          "time": "8:00 PM",
          "description": "DNS logs are a great data source for hunting malware. The first time I attempted to search through DNS logs, I was overwhelmed by the sheer volume of data.   By the end of the talk, you should have some ideas on how to use our favorite open source tools (Bro & Security Onion FTW!) to start detecting threats.",
          "speaker": {
            "name": "Aaron Tekippe"
        }
      }
      ]
    },
    {
      "date": "19 Feb 2017",
//      "sponsor": {
//        "sponsor": "",
//        "image": ""
//      },
      "intro": {
        "title": "SecDSM 101",
        "time": "6:00 PM",
        "description": "A brief introduction to the group along with any announcements and general communication."
      },
      "tooltalks": [
      ],
      "features": [
        {
          "title": "SecDSM News",
          "time": "6:05 PM",
          "description": "Quick Review of the Month's InfoSec news",
          "speaker": {
            "name": "Ben Schmitt",
            "bio": ""
          }
        }
      ]
    },
    {
    "date": "16 Mar 2017",
    "alert": "March will be endpoint threat detection and response month.  All presentations will be related to ETDR.",
//    "sponsor": {
//      "sponsor": "",
//      "image": ""
//    },
    "intro": {
      "title": "SecDSM 101",
      "time": "6:00 PM",
      "description": "A brief introduction to the group along with any announcements and general communication."
    },
    "tooltalks": [
    ],
    "features": [
      {
        "title": "SecDSM News",
        "time": "6:05 PM",
        "description": "Quick Review of the Month's InfoSec news",
        "speaker": {
          "name": "Ben Schmitt",
          "bio": ""
        }
      }
    ]
  }
  ],
  "events": [
    {
      "name": "Jan",
      "events": [
        {
          "url": "https://area515.org/happy-new-year/",
          "name": "3D Printing Meetup",
          "time": "Monday - Jan 16th",
          "description": "3D Printing Meetup",
          "geolocation": "https://www.google.com/maps/embed?pb=!1m18!1m12!1m3!1d2984.286928827529!2d-93.64317408456807!3d41.584675079246566!2m3!1f0!2f0!3f0!3m2!1i1024!2i768!4f13.1!3m3!1m2!1s0x87ee991feba5a727%3A0x62ef7f696ff89e1c!2sArea515+Des+Moines+Maker+Space!5e0!3m2!1sen!2sus!4v1483660670617"
        },
        {
          "url": "http://www.infragardiowa.org/",
          "name": "InfraGard Iowa January Meeting",
          "time": "Friday - Jan 20th 8:30AM-10:30AM",
          "description": "SA Georgi has been an FBI Agent for 18 years and has been the Crisis Management Coordinator for the Omaha Division of the FBI since 2008.  As Crisis Management Coordinator, SA Georgi has worked events in Nebraska and Iowa as varied as kidnappings, the College Baseball World Series, and a serial killer.  He has also been called upon to serve as a Crisis Management Coordinator at national events such as the Democratic National Convention and the protests in Ferguson, Missouri.  SA Georgi will discuss lessons learned from past crisis response incidents.",
          "geolocation": "https://www.google.com/maps/embed?pb=!1m18!1m12!1m3!1d23868.457829346302!2d-93.76415705895076!3d41.60046055222169!2m3!1f0!2f0!3f0!3m2!1i1024!2i768!4f13.1!3m3!1m2!1s0x87ec20e094e9a2a5%3A0x2fed8f4a8fa293ff!2s5400+University+Ave%2C+West+Des+Moines%2C+IA+50266!5e0!3m2!1sen!2sus!4v1481263667662"
        },
        {
          "url": "https://ctftime.org/event/382",
          "name": "Insomni'hack teaser 2017",
          "time": "Saturday Jan 21, 09:00 UTC - Sunday Jan 22, 21:00 UTC",
          "description": "A Insomni'hack event. Location TBD"
        },
        {
          "url": "http://desmoines.issa.org/",
          "name": "January ISSA meeting",
          "time": "January 23, 2017 11:30AM-1:00PM",
          "description":"FBL Financial, 5400 University Ave, West Des Moines, IA.",
          "geolocation": "https://www.google.com/maps/embed?pb=!1m18!1m12!1m3!1d23868.457829346302!2d-93.76415705895076!3d41.60046055222169!2m3!1f0!2f0!3f0!3m2!1i1024!2i768!4f13.1!3m3!1m2!1s0x87ec20e094e9a2a5%3A0x2fed8f4a8fa293ff!2s5400+University+Ave%2C+West+Des+Moines%2C+IA+50266!5e0!3m2!1sen!2sus!4v1481263667662"
        },
        {
          "url": "http://bit.ly/dsmpairprog",
          "name": "PluggedIn",
          "time": "Tuesday - Jan 24th",
          "description": "A community event for sharing and learning all things hot in technology.  The event starts at 5:30pm and is hosted at The Forge.  Immersive Pairing: Bridging the Programming Paradox.'",
          "geolocation": "https://www.google.com/maps/embed?pb=!1m18!1m12!1m3!1d2984.305744458922!2d-93.63765868415506!3d41.58426797924662!2m3!1f0!2f0!3f0!3m2!1i1024!2i768!4f13.1!3m3!1m2!1s0x87ee991d8dca415f%3A0x84112296254b6c27!2sForge+by+Pillar+Technology!5e0!3m2!1sen!2sus!4v1476802524764"
        },
        {
          "url": "https://area515.org/happy-new-year/",
          "name": "Ham/Amateur Radio Meetup",
          "time": "Wednesday - Jan 25th",
          "description": "Ham/Amateur Radio Meetup",
          "geolocation": "https://www.google.com/maps/embed?pb=!1m18!1m12!1m3!1d2984.286928827529!2d-93.64317408456807!3d41.584675079246566!2m3!1f0!2f0!3f0!3m2!1i1024!2i768!4f13.1!3m3!1m2!1s0x87ee991feba5a727%3A0x62ef7f696ff89e1c!2sArea515+Des+Moines+Maker+Space!5e0!3m2!1sen!2sus!4v1483660670617"
        },
        {
          "url": "http://artintoscience.com/",
          "name": "ART INTO SCIENCE: A CONFERENCE FOR DEFENSE",
          "time": "25th to 27th of January, 2017",
          "description": "ART INTO SCIENCE IS A CONFERENCE FOR DEFENSE, ORGANIZED BY DEFENDERS."
        }
      ]
    },
    {
      "name": "February",
      "events": [
        {
          "url": "https://cdc.iseage.org/",
          "name": "2017 National Cyber Defense Competition(NCDC)",
          "time": "February 3-4",
          "description": "Practice your hacking techniques and support the CDC by volunteering to be a red team member. Free food and drink are also provided for red team members as well as the red team t-shirt. ISEAGE keeps up a list of potential red team members and emails them before every CDC inviting them to come participate. If you are a professional in the field of information security or are studying to be one, you are encouraged to contact ISEAGE to tell them to add your email to the list.",
          "geolocation": "https://www.google.com/maps/embed?pb=!1m18!1m12!1m3!1d2963.6884538817817!2d-93.65316908498856!3d42.02841537921051!2m3!1f0!2f0!3f0!3m2!1i1024!2i768!4f13.1!3m3!1m2!1s0x87ee70a512c27ae9%3A0x15e6633604cdea3c!2sCoover+Hall%2C+2520+Osborn+Dr%2C+Ames%2C+IA+50011!5e0!3m2!1sen!2sus!4v1482293247973"
        },
        {
          "url": "http://seckc.org/",
          "name": "SecKC Road Trip",
          "time": "Tuesday - February 14th",
          "description": "There is a standing self organizing road trip every month to the SecKC meeting. The meeting starts at 6pm. Meet at the Target parking lot at the West Glenn shopping center in the south west corner at 1:00pm and will leave at 1:15pm. This is a self organizing event.  Participants that show up are resposible for figuring out carpool/rideshare arrangments with each other. If one person shows up, they drive yourself down.  If 8 poeple show up, figure out who is driving then go!",
          "geolocation": "https://www.google.com/maps/embed?pb=!1m18!1m12!1m3!1d1733.1573111312484!2d-93.7799096857767!3d41.55992380534094!2m3!1f0!2f0!3f0!3m2!1i1024!2i768!4f13.1!3m3!1m2!1s0x0%3A0x0!2zNDHCsDMzJzM1LjciTiA5M8KwNDYnNDQuMSJX!5e1!3m2!1sen!2sus!4v1460085181986"
        },
        {
          "url": "http://desmoines.issa.org/",
          "name": "February ISSA meeting",
          "time": "February 27, 2017 11:30AM-1:00PM",
          "description":"FBL Financial, 5400 University Ave, West Des Moines, IA.",
          "geolocation": "https://www.google.com/maps/embed?pb=!1m18!1m12!1m3!1d23868.457829346302!2d-93.76415705895076!3d41.60046055222169!2m3!1f0!2f0!3f0!3m2!1i1024!2i768!4f13.1!3m3!1m2!1s0x87ec20e094e9a2a5%3A0x2fed8f4a8fa293ff!2s5400+University+Ave%2C+West+Des+Moines%2C+IA+50266!5e0!3m2!1sen!2sus!4v1481263667662"
        }
      ]
    },
    {
      "name": "March",
      "events": [
        {
          "url": "https://cdc.iseage.org/",
          "name": "2017 Spring ISU CDC",
          "time": "March 24-25",
          "description": "Practice your hacking techniques and support the CDC by volunteering to be a red team member. Free food and drink are also provided for red team members as well as the red team t-shirt. ISEAGE keeps up a list of potential red team members and emails them before every CDC inviting them to come participate. If you are a professional in the field of information security or are studying to be one, you are encouraged to contact ISEAGE to tell them to add your email to the list.",
          "geolocation": "https://www.google.com/maps/embed?pb=!1m18!1m12!1m3!1d2963.6884538817817!2d-93.65316908498856!3d42.02841537921051!2m3!1f0!2f0!3f0!3m2!1i1024!2i768!4f13.1!3m3!1m2!1s0x87ee70a512c27ae9%3A0x15e6633604cdea3c!2sCoover+Hall%2C+2520+Osborn+Dr%2C+Ames%2C+IA+50011!5e0!3m2!1sen!2sus!4v1482293247973"
        },
        {
          "url": "http://desmoines.issa.org/",
          "name": "March ISSA meeting",
          "time": "March 27, 2017 11:30AM-1:00PM",
          "description":"FBL Financial, 5400 University Ave, West Des Moines, IA.",
          "geolocation": "https://www.google.com/maps/embed?pb=!1m18!1m12!1m3!1d23868.457829346302!2d-93.76415705895076!3d41.60046055222169!2m3!1f0!2f0!3f0!3m2!1i1024!2i768!4f13.1!3m3!1m2!1s0x87ec20e094e9a2a5%3A0x2fed8f4a8fa293ff!2s5400+University+Ave%2C+West+Des+Moines%2C+IA+50266!5e0!3m2!1sen!2sus!4v1481263667662"
        },
        {
            "url": "https://cyphercon.com/cyphercon-20/",
            "name": "CypherCon",
            "time": "March 30-31"
        },
        {
            "url": "http://dakotacon.org/",
            "name": "DakotaCon",
            "time": "March 31 - April 2"
        }
      ]
    },
    {
      "name": "April",
      "events": [
        {
          "url": "https://cdc.iseage.org/",
          "name": "2017 IT-Olympics CDC (High Schools)",
          "time": "April 21-22",
          "description": "Practice your hacking techniques and support the CDC by volunteering to be a red team member. Free food and drink are also provided for red team members as well as the red team t-shirt. ISEAGE keeps up a list of potential red team members and emails them before every CDC inviting them to come participate. If you are a professional in the field of information security or are studying to be one, you are encouraged to contact ISEAGE to tell them to add your email to the list.",
          "geolocation": "https://www.google.com/maps/embed?pb=!1m18!1m12!1m3!1d2963.6884538817817!2d-93.65316908498856!3d42.02841537921051!2m3!1f0!2f0!3f0!3m2!1i1024!2i768!4f13.1!3m3!1m2!1s0x87ee70a512c27ae9%3A0x15e6633604cdea3c!2sCoover+Hall%2C+2520+Osborn+Dr%2C+Ames%2C+IA+50011!5e0!3m2!1sen!2sus!4v1482293247973"
        },
        {
            "url": "https://bsidesiowa.com/",
            "name": "Bsides Iowa",
            "time": "Apr 22"
        },
        {
          "url": "http://desmoines.issa.org/",
          "name": "April ISSA meeting",
          "time": "April 24, 2017 11:30AM-1:00PM",
          "description":"FBL Financial, 5400 University Ave, West Des Moines, IA.",
          "geolocation": "https://www.google.com/maps/embed?pb=!1m18!1m12!1m3!1d23868.457829346302!2d-93.76415705895076!3d41.60046055222169!2m3!1f0!2f0!3f0!3m2!1i1024!2i768!4f13.1!3m3!1m2!1s0x87ec20e094e9a2a5%3A0x2fed8f4a8fa293ff!2s5400+University+Ave%2C+West+Des+Moines%2C+IA+50266!5e0!3m2!1sen!2sus!4v1481263667662"
        },
        {
            "url": "https://appliedtech.iit.edu/forensecure",
            "name": "ForenSecure'17",
            "time": "April 27-28"
        }
      ]
    },
    {
      "name": "May",
      "events": [
        {
            "url": "http://thotcon.org/",
            "name": "THOTCON",
            "time": "May 4th-5th"
        },
        {
          "url": "http://desmoines.issa.org/",
          "name": "May ISSA meeting",
          "time": "May 22, 2017 11:30AM-1:00PM",
          "description":"FBL Financial, 5400 University Ave, West Des Moines, IA.",
          "geolocation": "https://www.google.com/maps/embed?pb=!1m18!1m12!1m3!1d23868.457829346302!2d-93.76415705895076!3d41.60046055222169!2m3!1f0!2f0!3f0!3m2!1i1024!2i768!4f13.1!3m3!1m2!1s0x87ec20e094e9a2a5%3A0x2fed8f4a8fa293ff!2s5400+University+Ave%2C+West+Des+Moines%2C+IA+50266!5e0!3m2!1sen!2sus!4v1481263667662"
        }
       ]
     },
     {
      "name": "June",
      "events": [
        {
          "url": "http://desmoines.issa.org/",
          "name": "June ISSA meeting",
          "time": "June 26, 2017 11:30AM-1:00PM",
          "description":"FBL Financial, 5400 University Ave, West Des Moines, IA.",
          "geolocation": "https://www.google.com/maps/embed?pb=!1m18!1m12!1m3!1d23868.457829346302!2d-93.76415705895076!3d41.60046055222169!2m3!1f0!2f0!3f0!3m2!1i1024!2i768!4f13.1!3m3!1m2!1s0x87ec20e094e9a2a5%3A0x2fed8f4a8fa293ff!2s5400+University+Ave%2C+West+Des+Moines%2C+IA+50266!5e0!3m2!1sen!2sus!4v1481263667662"
        }
       ]
     },
     {
      "name": "July",
      "events": [
        {
          "url": "http://desmoines.issa.org/",
          "name": "July ISSA meeting",
          "time": "July 24, 2017 11:30AM-1:00PM",
          "description":"FBL Financial, 5400 University Ave, West Des Moines, IA.",
          "geolocation": "https://www.google.com/maps/embed?pb=!1m18!1m12!1m3!1d23868.457829346302!2d-93.76415705895076!3d41.60046055222169!2m3!1f0!2f0!3f0!3m2!1i1024!2i768!4f13.1!3m3!1m2!1s0x87ec20e094e9a2a5%3A0x2fed8f4a8fa293ff!2s5400+University+Ave%2C+West+Des+Moines%2C+IA+50266!5e0!3m2!1sen!2sus!4v1481263667662"
        }
       ]
     },
     {
      "name": "August",
      "events": [
        {
          "url": "http://desmoines.issa.org/",
          "name": "August ISSA meeting",
          "time": "August 28, 2017 11:30AM-1:00PM",
          "description":"FBL Financial, 5400 University Ave, West Des Moines, IA.",
          "geolocation": "https://www.google.com/maps/embed?pb=!1m18!1m12!1m3!1d23868.457829346302!2d-93.76415705895076!3d41.60046055222169!2m3!1f0!2f0!3f0!3m2!1i1024!2i768!4f13.1!3m3!1m2!1s0x87ec20e094e9a2a5%3A0x2fed8f4a8fa293ff!2s5400+University+Ave%2C+West+Des+Moines%2C+IA+50266!5e0!3m2!1sen!2sus!4v1481263667662"
        }
       ]
     },
     {
      "name": "September",
      "events": [
        {
          "url": "",
          "name": "",
          "time": "",
          "description":"",
          "geolocation": ""
        }
       ]
     },
     {
      "name": "October",
      "events": [
        {
          "url": "http://secureiowaconference.com/",
          "name": "Secure Iowa Conference",
          "time": "October",
          "description":"",
          "geolocation": ""
        }
       ]
     },
     {
      "name": "November",
      "events": [
        {
          "url": "",
          "name": "",
          "time": "",
          "description":"",
          "geolocation": ""
        }
       ]
     },
     {
      "name": "December",
      "events": [
        {
          "url": "",
          "name": "",
          "time": "",
          "description":"",
          "geolocation": ""
        }
       ]
     }
  ]
}
