{
  "name": "September",
  "abbreviation": "Sept",
    "talks": [
      {
        "presenter": {
          "name": "Brandon Murphy"
        },
        "presentation": {
          "title": "Getting an A+ on SSLlabs.com"
        }
    },
      {
        "presenter": {
          "name": "Ben Schmitt"
        },
        "presentation": {
          "title": "Consuming SSLLabs.com API",
          "links": [
            {
              "url": "./2016/09/SSLLabs_API.pdf",
              "type": "file-pdf-o"
          },
            {
              "url": "https://gist.github.com/benjschmitt/91370256ce66d957f8364846a13645c5",
              "type": "github"
          }
          ]
        }
    },
      {
        "presenter": {
          "name": "Aaron Tekippe",
          "bio": "Aaron Tekippe is a security practitioner in Des Moines, IA.  Currently, he touches all areas of InfoSec, including engineering, operations, and compliance.  Recently he has started scripting in Powershell in a quest to automate all the things."
        },
        "presentation": {
          "title": "Security Onion – A quick start guide",
          "description": "Security Onion (https://securityonion.net/) is a Linux distro for intrusion detection, network security monitoring, and log management.  This talk will cover design considerations, tools included in the distro, and deployment tips."
        }
      }
    ]
}
