{
  "name": "March",
  "abbreviation": "March",
  "talks": [
    {
      "presenter": {
        "name": "Nicholas Starke",
        "bio":  "Nicholas Starke is a security researcher based in Des Moines, IA who will be presenting on Bettercap."
      },
      "presentation": {
        "title": "Bettercap",
        "description": "Bettercap is a Ruby rewrite of Ettercap that strives to make usability as simple as possible.  In this presentation, we will see how to use Bettercap to MITM a host, as well as inject and examine traffic.  We'll discuss the internal mechanism of such functionality, and then talk about some use cases as it applies to penetration testing and security research in general."
      }
    },
    {
      "presenter": {
        "name": "Ben Schmitt",
        "bio": "Ben Schmitt is the InfoSec/Risk Manager for Dwolla.  Prior to this role, Ben held the position of Global Director, IT Security & Compliance at the Danfoss Group responsible for Network and Application security (including ERP systems).  Ben is a Wisconsin native hailing from Manitowoc, WI (yes, he has watched Making a Murderer) and started his InfoSec career with TDS Telecom in Madison covering ISP and Enterprise security as a Security Architect."
      },
      "presentation": {
        "title": "Crypto Update 2016",
        "description": "With crypto almost always in the news, the recent vulnerabilities in TLS and the fact that crypto is something which is (unfortunately) very easy to get wrong, let's touch on current leading practices (for example, Authenticated Encryption) and leave with common understanding of the basics, some pitfalls and be able to ask our vendors and/or colleagues the right questions when evaluating or implementing data protection.",
        "links": [
          {
            "url": "./2016/03/benSchmitt_cryptoUpdate2016.pdf",
            "type": "file-pdf-o"
          }
        ]
      }
    }
  ]
}
